async_fifo/sim.vcd
$date
	Wed Jan 13 23:14:50 2021
$end
$version
	Icarus Verilog
$end
$timescale
	1ps
$end
$scope module async_fifo_tb $end
$var wire 1 ! wr_full $end
$var wire 1 " rd_empty $end
$var wire 8 # rd_data [7:0] $end
$var reg 1 $ clk $end
$var reg 1 % rd_clk $end
$var reg 1 & rd_en $end
$var reg 1 ' rd_rst_n $end
$var reg 1 ( wr_clk $end
$var reg 8 ) wr_data [7:0] $end
$var reg 1 * wr_en $end
$var reg 1 + wr_rst_n $end
$scope module fifo_inst $end
$var wire 1 % rd_clk $end
$var wire 1 & rd_en $end
$var wire 1 ' rd_rst_n $end
$var wire 1 ( wr_clk $end
$var wire 8 , wr_data [7:0] $end
$var wire 1 * wr_en $end
$var wire 1 + wr_rst_n $end
$var wire 4 - wr_grayptr [3:0] $end
$var wire 1 ! wr_full $end
$var wire 3 . wr_addr [2:0] $end
$var wire 4 / wq2_rd_ptr [3:0] $end
$var wire 4 0 rq2_wr_ptr [3:0] $end
$var wire 4 1 rd_grayptr [3:0] $end
$var wire 1 " rd_empty $end
$var wire 8 2 rd_data [7:0] $end
$var wire 3 3 rd_addr [2:0] $end
$scope module fifomem $end
$var wire 1 % rd_clk $end
$var wire 8 4 rd_data [7:0] $end
$var wire 1 & rd_en $end
$var wire 1 ( wr_clk $end
$var wire 8 5 wr_data [7:0] $end
$var wire 1 * wr_en $end
$var wire 1 ! wr_full $end
$var wire 3 6 wr_addr [2:0] $end
$var wire 1 " rd_empty $end
$var wire 3 7 rd_addr [2:0] $end
$var reg 1 8 rd_ack $end
$var reg 8 9 rd_data_t [7:0] $end
$var reg 1 : wr_ack $end
$upscope $end
$scope module rd_ptr_empty $end
$var wire 1 % rd_clk $end
$var wire 1 & rd_en $end
$var wire 4 ; rd_grayptr_next [3:0] $end
$var wire 1 ' rd_rst_n $end
$var wire 4 < rq2_wr_ptr [3:0] $end
$var wire 4 = rd_ptr_next [3:0] $end
$var wire 1 > rd_empty_val $end
$var wire 3 ? rd_addr [2:0] $end
$var reg 1 " rd_empty $end
$var reg 4 @ rd_grayptr [3:0] $end
$var reg 4 A rd_ptr [3:0] $end
$upscope $end
$scope module sync_r2w $end
$var wire 5 B rd_grayptr [4:0] $end
$var wire 1 ( wr_clk $end
$var wire 1 + wr_rst_n $end
$var reg 5 C wq1_rd_ptr [4:0] $end
$var reg 5 D wq2_rd_ptr [4:0] $end
$upscope $end
$scope module sync_w2r $end
$var wire 1 % rd_clk $end
$var wire 1 ' rd_rst_n $end
$var wire 5 E wr_grayptr [4:0] $end
$var reg 5 F rq1_wr_ptr [4:0] $end
$var reg 5 G rq2_wr_ptr [4:0] $end
$upscope $end
$scope module wr_ptr_full $end
$var wire 4 H wq2_rd_ptr [3:0] $end
$var wire 1 ( wr_clk $end
$var wire 1 * wr_en $end
$var wire 4 I wr_grayptr_next [3:0] $end
$var wire 1 + wr_rst_n $end
$var wire 4 J wr_ptr_next [3:0] $end
$var wire 1 K wr_full_val $end
$var wire 3 L wr_addr [2:0] $end
$var reg 1 ! wr_full $end
$var reg 4 M wr_grayptr [3:0] $end
$var reg 4 N wr_ptr [3:0] $end
$upscope $end
$upscope $end
$scope task readData $end
$upscope $end
$scope task writeData $end
$var reg 8 O x [7:0] $end
$upscope $end
$upscope $end
$scope module async_fifo_tb $end
$scope module fifo_inst $end
$scope module fifomem $end
$upscope $end
$scope module rd_ptr_empty $end
$upscope $end
$scope module sync_r2w $end
$upscope $end
$scope module sync_w2r $end
$upscope $end
$scope module wr_ptr_full $end
$upscope $end
$upscope $end
$scope task readData $end
$upscope $end
$scope task writeData $end
$upscope $end
$upscope $end
$enddefinitions $end
#0
$dumpvars
bx O
b0 N
b0 M
b0 L
0K
b0 J
b0 I
b0 H
b0 G
b0 F
b0 E
b0 D
b0 C
b0 B
b0 A
b0 @
b0 ?
1>
b0 =
b0 <
b0 ;
x:
bx 9
x8
b0 7
b0 6
bx 5
bx 4
b0 3
bx 2
b0 1
b0 0
b0 /
b0 .
b0 -
bx ,
0+
0*
bx )
0(
0'
0&
0%
0$
bx #
1"
0!
$end
#1000000000000
1$
#2000000000000
0$
#3000000000000
1$
#4000000000000
0$
#5000000000000
1$
#6000000000000
0$
#7000000000000
bz #
bz 2
bz 4
bz 9
08
1%
1$
#8000000000000
0$
#9000000000000
1$
#10000000000000
0$
#11000000000000
0%
1$
#12000000000000
0:
1(
0$
#13000000000000
1$
#14000000000000
0$
#15000000000000
1%
1$
#16000000000000
0$
#17000000000000
1$
#18000000000000
0(
0$
#19000000000000
0%
1$
#20000000000000
0$
1'
#21000000000000
1$
#22000000000000
0$
#23000000000000
1%
1$
#24000000000000
1(
0$
#25000000000000
1$
#26000000000000
0$
#27000000000000
0%
1$
#28000000000000
0$
#29000000000000
1$
#30000000000000
0(
0$
#31000000000000
1%
1$
#32000000000000
0$
#33000000000000
1$
#34000000000000
0$
#35000000000000
0%
1$
#36000000000000
1(
0$
#37000000000000
1$
#38000000000000
0$
#39000000000000
1%
1$
#40000000000000
0$
1+
#41000000000000
1$
#42000000000000
b1 I
b1 J
b100100 )
b100100 ,
b100100 5
1*
0(
0$
#43000000000000
0%
1$
#44000000000000
0$
#45000000000000
1$
#46000000000000
0$
#47000000000000
1%
1$
#48000000000000
b1 .
b1 6
b1 L
b11 I
1:
b10 J
b1 N
b1 E
b1 -
b1 M
1(
0$
#49000000000000
1$
#50000000000000
0$
#51000000000000
0%
1$
#52000000000000
0$
#53000000000000
1$
#54000000000000
b10000001 )
b10000001 ,
b10000001 5
0(
0$
#55000000000000
b1 F
1%
1$
#56000000000000
0$
#57000000000000
1$
#58000000000000
0$
#59000000000000
0%
1$
#60000000000000
b10 .
b10 6
b10 L
b10 I
b11 J
b10 N
b11 E
b11 -
b11 M
1(
0$
1&
#61000000000000
1$
#62000000000000
0$
#63000000000000
0>
b1 0
b1 <
b1 G
b11 F
1%
1$
#64000000000000
0$
#65000000000000
1$
#66000000000000
b1001 )
b1001 ,
b1001 5
0(
0$
#67000000000000
0&
0%
1$
#68000000000000
0$
#69000000000000
1$
#70000000000000
0$
#71000000000000
b11 0
b11 <
0"
b11 G
1%
1$
#72000000000000
b11 .
b11 6
b11 L
b110 I
b100 J
b11 N
b10 E
b10 -
b10 M
1(
0$
#73000000000000
1$
#74000000000000
0$
#75000000000000
b1 ;
b1 =
1&
0%
1$
#76000000000000
0$
#77000000000000
1$
#78000000000000
b1100011 )
b1100011 ,
b1100011 5
0(
0$
#79000000000000
1>
b1 3
b1 7
b1 ?
b11 ;
18
b100100 #
b100100 2
b100100 4
b100100 9
b10 F
b10 =
b1 A
b1 B
b1 1
b1 @
1%
1$
#80000000000000
0$
#81000000000000
1$
#82000000000000
0$
#83000000000000
0%
1$
#84000000000000
b100 .
b100 6
b100 L
b111 I
b101 J
b100 N
b110 E
b110 -
b110 M
b1 C
1(
0$
#85000000000000
1$
#86000000000000
0$
#87000000000000
b10 3
b10 7
b10 ?
b11 ;
0>
b10 0
b10 <
b10000001 #
b10000001 2
b10000001 4
b10000001 9
1"
b10 =
b10 A
b11 B
b11 1
b11 @
b10 G
b110 F
1%
1$
#88000000000000
0$
#89000000000000
1$
#90000000000000
b1101 )
b1101 ,
b1101 5
0(
0$
#91000000000000
0&
0%
1$
#92000000000000
0$
#93000000000000
1$
#94000000000000
0$
#95000000000000
b110 0
b110 <
bz #
bz 2
bz 4
bz 9
08
b110 G
0"
1%
1$
#96000000000000
b1 /
b1 H
b101 .
b101 6
b101 L
b101 I
b1 D
b11 C
b110 J
b101 N
b111 E
b111 -
b111 M
1(
0$
#97000000000000
1$
#98000000000000
0$
#99000000000000
b10 ;
b11 =
1&
0%
1$
#100000000000000
0$
#101000000000000
1$
#102000000000000
b10001101 )
b10001101 ,
b10001101 5
0(
0$
#103000000000000
1>
b11 3
b11 7
b11 ?
b110 ;
18
b1001 #
b1001 2
b1001 4
b1001 9
b100 =
b11 A
b10 B
b10 1
b10 @
b111 F
1%
1$
#104000000000000
0$
#105000000000000
1$
#106000000000000
0$
#107000000000000
0%
1$
#108000000000000
b110 .
b110 6
b110 L
b100 I
b11 /
b11 H
b111 J
b110 N
b101 E
b101 -
b101 M
b11 D
b10 C
1(
0$
#109000000000000
1$
#110000000000000
0$
#111000000000000
b111 0
b111 <
b100 3
b100 7
b100 ?
0>
b110 ;
b1100011 #
b1100011 2
b1100011 4
b1100011 9
b111 G
b101 F
b100 =
b100 A
b110 B
b110 1
b110 @
1"
1%
1$
#112000000000000
0$
#113000000000000
1$
#114000000000000
b1100101 )
b1100101 ,
b1100101 5
0(
0$
#115000000000000
0&
0%
1$
#116000000000000
0$
#117000000000000
1$
#118000000000000
0$
#119000000000000
b101 0
b101 <
bz #
bz 2
bz 4
bz 9
08
0"
b101 G
1%
1$
#120000000000000
b10 /
b10 H
b111 .
b111 6
b111 L
b1100 I
b10 D
b110 C
b1000 J
b111 N
b100 E
b100 -
b100 M
1(
0$
#121000000000000
1$
#122000000000000
0$
#123000000000000
b111 ;
b101 =
1&
0%
1$
#124000000000000
0$
#125000000000000
1$
#126000000000000
b10010 )
b10010 ,
b10010 5
0(
0$
#127000000000000
1>
b101 3
b101 7
b101 ?
b101 ;
18
b1101 #
b1101 2
b1101 4
b1101 9
b100 F
b110 =
b101 A
b111 B
b111 1
b111 @
1%
1$
#128000000000000
0$
#129000000000000
1$
#130000000000000
0$
#131000000000000
0%
1$
#132000000000000
b0 .
b0 6
b0 L
b1101 I
b110 /
b110 H
b1001 J
b1000 N
b1100 E
b1100 -
b1100 M
b110 D
b111 C
1(
0$
#133000000000000
1$
#134000000000000
0$
#135000000000000
b110 3
b110 7
b110 ?
b101 ;
0>
b100 0
b100 <
b10001101 #
b10001101 2
b10001101 4
b10001101 9
1"
b110 =
b110 A
b101 B
b101 1
b101 @
b100 G
b1100 F
1%
1$
#136000000000000
0$
#137000000000000
1$
#138000000000000
b1 )
b1 ,
b1 5
0(
0$
#139000000000000
0&
0%
1$
#140000000000000
0$
#141000000000000
1$
#142000000000000
0$
#143000000000000
b1100 0
b1100 <
bz #
bz 2
bz 4
bz 9
08
b1100 G
0"
1%
1$
#144000000000000
b111 /
b111 H
b1 .
b1 6
b1 L
b1111 I
b111 D
b101 C
b1010 J
b1001 N
b1101 E
b1101 -
b1101 M
1(
0$
#145000000000000
1$
#146000000000000
0$
#147000000000000
b100 ;
b111 =
1&
0%
1$
#148000000000000
0$
#149000000000000
1$
#150000000000000
b1101 )
b1101 ,
b1101 5
0(
0$
#151000000000000
1>
b111 3
b111 7
b111 ?
b1100 ;
18
b1100101 #
b1100101 2
b1100101 4
b1100101 9
b1000 =
b111 A
b100 B
b100 1
b100 @
b1101 F
1%
1$
#152000000000000
0$
#153000000000000
1$
#154000000000000
0$
#155000000000000
0%
1$
#156000000000000
b10 .
b10 6
b10 L
b1110 I
b101 /
b101 H
b1011 J
b1010 N
b1111 E
b1111 -
b1111 M
b101 D
b100 C
1(
0$
#157000000000000
1$
#158000000000000
0$
#159000000000000
b1101 0
b1101 <
b0 3
b0 7
b0 ?
0>
b1100 ;
b10010 #
b10010 2
b10010 4
b10010 9
b1101 G
b1111 F
b1000 =
b1000 A
b1100 B
b1100 1
b1100 @
1"
1%
1$
#160000000000000
0$
#161000000000000
1$
#162000000000000
b1110110 )
b1110110 ,
b1110110 5
0(
0$
#163000000000000
0&
0%
1$
#164000000000000
0$
#165000000000000
1$
#166000000000000
0$
#167000000000000
b1111 0
b1111 <
bz #
bz 2
bz 4
bz 9
08
0"
b1111 G
1%
1$
#168000000000000
b100 /
b100 H
b11 .
b11 6
b11 L
0K
b1010 I
b100 D
b1100 C
b1100 J
b1011 N
b1110 E
b1110 -
b1110 M
1(
0$
#169000000000000
1$
#170000000000000
0$
#171000000000000
b1101 ;
b1001 =
1&
0%
1$
#172000000000000
0$
#173000000000000
1$
#174000000000000
b111101 )
b111101 ,
b111101 5
0(
0$
#175000000000000
1>
b1 3
b1 7
b1 ?
b1111 ;
18
b1 #
b1 2
b1 4
b1 9
b1110 F
b1010 =
b1001 A
b1101 B
b1101 1
b1101 @
1%
1$
#176000000000000
0$
#177000000000000
1$
#178000000000000
0$
#179000000000000
0%
1$
#180000000000000
b100 .
b100 6
b100 L
b1011 I
b1100 /
b1100 H
b1101 J
b1100 N
b1010 E
b1010 -
b1010 M
b1100 D
b1101 C
1(
0$
#181000000000000
1$
#182000000000000
0$
#183000000000000
b10 3
b10 7
b10 ?
b1111 ;
0>
b1110 0
b1110 <
b1101 #
b1101 2
b1101 4
b1101 9
1"
b1010 =
b1010 A
b1111 B
b1111 1
b1111 @
b1110 G
b1010 F
1%
1$
#184000000000000
0$
#185000000000000
1$
#186000000000000
b11101101 )
b11101101 ,
b11101101 5
0(
0$
#187000000000000
0&
0%
1$
#188000000000000
0$
#189000000000000
1$
#190000000000000
0$
#191000000000000
b1010 0
b1010 <
bz #
bz 2
bz 4
bz 9
08
b1010 G
0"
1%
1$
#192000000000000
b1101 /
b1101 H
b101 .
b101 6
b101 L
b1001 I
b1101 D
b1111 C
b1110 J
b1101 N
b1011 E
b1011 -
b1011 M
1(
0$
#193000000000000
1$
#194000000000000
0$
#195000000000000
b1110 ;
b1011 =
1&
0%
1$
#196000000000000
0$
#197000000000000
1$
#198000000000000
b10001100 )
b10001100 ,
b10001100 5
0(
0$
#199000000000000
1>
b11 3
b11 7
b11 ?
b1010 ;
18
b1110110 #
b1110110 2
b1110110 4
b1110110 9
b1100 =
b1011 A
b1110 B
b1110 1
b1110 @
b1011 F
1%
1$
#200000000000000
0$
#201000000000000
1$
#202000000000000
0$
#203000000000000
0%
1$
#204000000000000
b110 .
b110 6
b110 L
b1000 I
b1111 /
b1111 H
b1111 J
b1110 N
b1001 E
b1001 -
b1001 M
b1111 D
b1110 C
1(
0$
#205000000000000
1$
#206000000000000
0$
#207000000000000
b1011 0
b1011 <
b100 3
b100 7
b100 ?
0>
b1010 ;
b111101 #
b111101 2
b111101 4
b111101 9
b1011 G
b1001 F
b1100 =
b1100 A
b1010 B
b1010 1
b1010 @
1"
1%
1$
#208000000000000
0$
#209000000000000
1$
#210000000000000
b11111001 )
b11111001 ,
b11111001 5
0(
0$
#211000000000000
0&
0%
1$
#212000000000000
0$
#213000000000000
1$
#214000000000000
0$
#215000000000000
b1001 0
b1001 <
bz #
bz 2
bz 4
bz 9
08
0"
b1001 G
1%
1$
#216000000000000
b1110 /
b1110 H
b111 .
b111 6
b111 L
b0 I
b1110 D
b1010 C
b0 J
b1111 N
b1000 E
b1000 -
b1000 M
1(
0$
#217000000000000
1$
#218000000000000
0$
#219000000000000
b1011 ;
b1101 =
1&
0%
1$
#220000000000000
0$
#221000000000000
1$
#222000000000000
b11000110 )
b11000110 ,
b11000110 5
0(
0$
#223000000000000
1>
b101 3
b101 7
b101 ?
b1001 ;
18
b11101101 #
b11101101 2
b11101101 4
b11101101 9
b1000 F
b1110 =
b1101 A
b1011 B
b1011 1
b1011 @
1%
1$
#224000000000000
0$
#225000000000000
1$
#226000000000000
0$
#227000000000000
0%
1$
#228000000000000
b0 .
b0 6
b0 L
b1 I
b1010 /
b1010 H
b1 J
b0 N
b0 E
b0 -
b0 M
b1010 D
b1011 C
1(
0$
#229000000000000
1$
#230000000000000
0$
#231000000000000
b110 3
b110 7
b110 ?
b1001 ;
0>
b1000 0
b1000 <
b10001100 #
b10001100 2
b10001100 4
b10001100 9
1"
b1110 =
b1110 A
b1001 B
b1001 1
b1001 @
b1000 G
b0 F
1%
1$
#232000000000000
0$
#233000000000000
1$
#234000000000000
b11000101 )
b11000101 ,
b11000101 5
0(
0$
#235000000000000
0&
0%
1$
#236000000000000
0$
#237000000000000
1$
#238000000000000
0$
#239000000000000
b0 0
b0 <
bz #
bz 2
bz 4
bz 9
08
b0 G
0"
1%
1$
#240000000000000
b1011 /
b1011 H
b1 .
b1 6
b1 L
b11 I
b1011 D
b1001 C
b10 J
b1 N
b1 E
b1 -
b1 M
1(
0$
#241000000000000
1$
#242000000000000
0$
#243000000000000
b1000 ;
b1111 =
1&
0%
1$
#244000000000000
0$
#245000000000000
1$
#246000000000000
b10101010 )
b10101010 ,
b10101010 5
0(
0$
#247000000000000
1>
b111 3
b111 7
b111 ?
b0 ;
18
b11111001 #
b11111001 2
b11111001 4
b11111001 9
b0 =
b1111 A
b1000 B
b1000 1
b1000 @
b1 F
1%
1$
#248000000000000
0$
#249000000000000
1$
#250000000000000
0$
#251000000000000
0%
1$
#252000000000000
b10 .
b10 6
b10 L
b10 I
b1001 /
b1001 H
b11 J
b10 N
b11 E
b11 -
b11 M
b1001 D
b1000 C
1(
0$
#253000000000000
1$
#254000000000000
0$
#255000000000000
b1 0
b1 <
b0 3
b0 7
b0 ?
0>
b0 ;
b11000110 #
b11000110 2
b11000110 4
b11000110 9
b1 G
b11 F
b0 =
b0 A
b0 B
b0 1
b0 @
1"
1%
1$
#256000000000000
0$
#257000000000000
1$
#258000000000000
b11100101 )
b11100101 ,
b11100101 5
0(
0$
#259000000000000
0&
0%
1$
#260000000000000
0$
#261000000000000
1$
#262000000000000
0$
#263000000000000
b11 0
b11 <
bz #
bz 2
bz 4
bz 9
08
0"
b11 G
1%
1$
#264000000000000
b1000 /
b1000 H
b11 .
b11 6
b11 L
0K
b110 I
b1000 D
b0 C
b100 J
b11 N
b10 E
b10 -
b10 M
1(
0$
#265000000000000
1$
#266000000000000
0$
#267000000000000
b1 ;
b1 =
1&
0%
1$
#268000000000000
0$
#269000000000000
1$
#270000000000000
b1110111 )
b1110111 ,
b1110111 5
0(
0$
#271000000000000
1>
b1 3
b1 7
b1 ?
b11 ;
18
b11000101 #
b11000101 2
b11000101 4
b11000101 9
b10 F
b10 =
b1 A
b1 B
b1 1
b1 @
1%
1$
#272000000000000
0$
#273000000000000
1$
#274000000000000
0$
#275000000000000
0%
1$
#276000000000000
b100 .
b100 6
b100 L
b111 I
b0 /
b0 H
b101 J
b100 N
b110 E
b110 -
b110 M
b0 D
b1 C
1(
0$
#277000000000000
1$
#278000000000000
0$
#279000000000000
b10 3
b10 7
b10 ?
b11 ;
0>
b10 0
b10 <
b10101010 #
b10101010 2
b10101010 4
b10101010 9
1"
b10 =
b10 A
b11 B
b11 1
b11 @
b10 G
b110 F
1%
1$
#280000000000000
0$
#281000000000000
1$
#282000000000000
b10010 )
b10010 ,
b10010 5
0(
0$
#283000000000000
0&
0%
1$
#284000000000000
0$
#285000000000000
1$
#286000000000000
0$
#287000000000000
b110 0
b110 <
bz #
bz 2
bz 4
bz 9
08
b110 G
0"
1%
1$
#288000000000000
b1 /
b1 H
b101 .
b101 6
b101 L
b101 I
b1 D
b11 C
b110 J
b101 N
b111 E
b111 -
b111 M
1(
0$
#289000000000000
1$
#290000000000000
0$
#291000000000000
b10 ;
b11 =
1&
0%
1$
#292000000000000
0$
#293000000000000
1$
#294000000000000
b10001111 )
b10001111 ,
b10001111 5
0(
0$
#295000000000000
1>
b11 3
b11 7
b11 ?
b110 ;
18
b11100101 #
b11100101 2
b11100101 4
b11100101 9
b100 =
b11 A
b10 B
b10 1
b10 @
b111 F
1%
1$
#296000000000000
0$
#297000000000000
1$
#298000000000000
0$
#299000000000000
0%
1$
#300000000000000
b110 .
b110 6
b110 L
b100 I
b11 /
b11 H
b111 J
b110 N
b101 E
b101 -
b101 M
b11 D
b10 C
1(
0$
#301000000000000
1$
#302000000000000
0$
#303000000000000
b111 0
b111 <
b100 3
b100 7
b100 ?
0>
b110 ;
b1110111 #
b1110111 2
b1110111 4
b1110111 9
b111 G
b101 F
b100 =
b100 A
b110 B
b110 1
b110 @
1"
1%
1$
#304000000000000
0$
#305000000000000
1$
#306000000000000
b11110010 )
b11110010 ,
b11110010 5
0(
0$
#307000000000000
0&
0%
1$
#308000000000000
0$
#309000000000000
1$
#310000000000000
0$
#311000000000000
b101 0
b101 <
bz #
bz 2
bz 4
bz 9
08
0"
b101 G
1%
1$
#312000000000000
b10 /
b10 H
b111 .
b111 6
b111 L
b1100 I
b10 D
b110 C
b1000 J
b111 N
b100 E
b100 -
b100 M
1(
0$
#313000000000000
1$
#314000000000000
0$
#315000000000000
b111 ;
b101 =
1&
0%
1$
#316000000000000
0$
#317000000000000
1$
#318000000000000
b11001110 )
b11001110 ,
b11001110 5
0(
0$
#319000000000000
1>
b101 3
b101 7
b101 ?
b101 ;
18
b10010 #
b10010 2
b10010 4
b10010 9
b100 F
b110 =
b101 A
b111 B
b111 1
b111 @
1%
1$
#320000000000000
0$
#321000000000000
1$
#322000000000000
0$
#323000000000000
0%
1$
#324000000000000
b0 .
b0 6
b0 L
b1101 I
b110 /
b110 H
b1001 J
b1000 N
b1100 E
b1100 -
b1100 M
b110 D
b111 C
1(
0$
#325000000000000
1$
#326000000000000
0$
#327000000000000
b110 3
b110 7
b110 ?
b101 ;
0>
b100 0
b100 <
b10001111 #
b10001111 2
b10001111 4
b10001111 9
1"
b110 =
b110 A
b101 B
b101 1
b101 @
b100 G
b1100 F
1%
1$
#328000000000000
0$
#329000000000000
1$
#330000000000000
b11101000 )
b11101000 ,
b11101000 5
0(
0$
#331000000000000
0&
0%
1$
#332000000000000
0$
#333000000000000
1$
#334000000000000
0$
#335000000000000
b1100 0
b1100 <
bz #
bz 2
bz 4
bz 9
08
b1100 G
0"
1%
1$
#336000000000000
b111 /
b111 H
b1 .
b1 6
b1 L
b1111 I
b111 D
b101 C
b1010 J
b1001 N
b1101 E
b1101 -
b1101 M
1(
0$
#337000000000000
1$
#338000000000000
0$
#339000000000000
b100 ;
b111 =
1&
0%
1$
#340000000000000
0$
#341000000000000
1$
#342000000000000
b11000101 )
b11000101 ,
b11000101 5
0(
0$
#343000000000000
1>
b111 3
b111 7
b111 ?
b1100 ;
18
b11110010 #
b11110010 2
b11110010 4
b11110010 9
b1000 =
b111 A
b100 B
b100 1
b100 @
b1101 F
1%
1$
#344000000000000
0$
#345000000000000
1$
#346000000000000
0$
#347000000000000
0%
1$
#348000000000000
b10 .
b10 6
b10 L
b1110 I
b101 /
b101 H
b1011 J
b1010 N
b1111 E
b1111 -
b1111 M
b101 D
b100 C
1(
0$
#349000000000000
1$
#350000000000000
0$
#351000000000000
b1101 0
b1101 <
b0 3
b0 7
b0 ?
0>
b1100 ;
b11001110 #
b11001110 2
b11001110 4
b11001110 9
b1101 G
b1111 F
b1000 =
b1000 A
b1100 B
b1100 1
b1100 @
1"
1%
1$
#352000000000000
0$
#353000000000000
1$
#354000000000000
b1011100 )
b1011100 ,
b1011100 5
0(
0$
#355000000000000
0&
0%
1$
#356000000000000
0$
#357000000000000
1$
#358000000000000
0$
#359000000000000
b1111 0
b1111 <
bz #
bz 2
bz 4
bz 9
08
0"
b1111 G
1%
1$
#360000000000000
b100 /
b100 H
b11 .
b11 6
b11 L
0K
b1010 I
b100 D
b1100 C
b1100 J
b1011 N
b1110 E
b1110 -
b1110 M
1(
0$
#361000000000000
1$
#362000000000000
0$
#363000000000000
b1101 ;
b1001 =
1&
0%
1$
#364000000000000
0$
#365000000000000
1$
#366000000000000
b10111101 )
b10111101 ,
b10111101 5
0(
0$
#367000000000000
1>
b1 3
b1 7
b1 ?
b1111 ;
18
b11101000 #
b11101000 2
b11101000 4
b11101000 9
b1110 F
b1010 =
b1001 A
b1101 B
b1101 1
b1101 @
1%
1$
#368000000000000
0$
#369000000000000
1$
#370000000000000
0$
#371000000000000
0%
1$
#372000000000000
b100 .
b100 6
b100 L
b1011 I
b1100 /
b1100 H
b1101 J
b1100 N
b1010 E
b1010 -
b1010 M
b1100 D
b1101 C
1(
0$
#373000000000000
1$
#374000000000000
0$
#375000000000000
b10 3
b10 7
b10 ?
b1111 ;
0>
b1110 0
b1110 <
b11000101 #
b11000101 2
b11000101 4
b11000101 9
1"
b1010 =
b1010 A
b1111 B
b1111 1
b1111 @
b1110 G
b1010 F
1%
1$
#376000000000000
0$
#377000000000000
1$
#378000000000000
b101101 )
b101101 ,
b101101 5
0(
0$
#379000000000000
0&
0%
1$
#380000000000000
0$
#381000000000000
1$
#382000000000000
0$
#383000000000000
b1010 0
b1010 <
bz #
bz 2
bz 4
bz 9
08
b1010 G
0"
1%
1$
#384000000000000
b1101 /
b1101 H
b101 .
b101 6
b101 L
b1001 I
b1101 D
b1111 C
b1110 J
b1101 N
b1011 E
b1011 -
b1011 M
1(
0$
#385000000000000
1$
#386000000000000
0$
#387000000000000
b1110 ;
b1011 =
1&
0%
1$
#388000000000000
0$
#389000000000000
1$
#390000000000000
b1100101 )
b1100101 ,
b1100101 5
0(
0$
#391000000000000
1>
b11 3
b11 7
b11 ?
b1010 ;
18
b1011100 #
b1011100 2
b1011100 4
b1011100 9
b1100 =
b1011 A
b1110 B
b1110 1
b1110 @
b1011 F
1%
1$
#392000000000000
0$
#393000000000000
1$
#394000000000000
0$
#395000000000000
0%
1$
#396000000000000
b110 .
b110 6
b110 L
b1000 I
b1111 /
b1111 H
b1111 J
b1110 N
b1001 E
b1001 -
b1001 M
b1111 D
b1110 C
1(
0$
#397000000000000
1$
#398000000000000
0$
#399000000000000
b1011 0
b1011 <
b100 3
b100 7
b100 ?
0>
b1010 ;
b10111101 #
b10111101 2
b10111101 4
b10111101 9
b1011 G
b1001 F
b1100 =
b1100 A
b1010 B
b1010 1
b1010 @
1"
1%
1$
#400000000000000
0$
#401000000000000
1$
#402000000000000
b1100011 )
b1100011 ,
b1100011 5
0(
0$
#403000000000000
0&
0%
1$
#404000000000000
0$
#405000000000000
1$
#406000000000000
0$
#407000000000000
b1001 0
b1001 <
bz #
bz 2
bz 4
bz 9
08
0"
b1001 G
1%
1$
#408000000000000
b1110 /
b1110 H
b111 .
b111 6
b111 L
b0 I
b1110 D
b1010 C
b0 J
b1111 N
b1000 E
b1000 -
b1000 M
1(
0$
#409000000000000
1$
#410000000000000
0$
#411000000000000
b1011 ;
b1101 =
1&
0%
1$
#412000000000000
0$
#413000000000000
1$
#414000000000000
b1010 )
b1010 ,
b1010 5
0(
0$
#415000000000000
1>
b101 3
b101 7
b101 ?
b1001 ;
18
b101101 #
b101101 2
b101101 4
b101101 9
b1000 F
b1110 =
b1101 A
b1011 B
b1011 1
b1011 @
1%
1$
#416000000000000
0$
#417000000000000
1$
#418000000000000
0$
#419000000000000
0%
1$
#420000000000000
b0 .
b0 6
b0 L
b1 I
b1010 /
b1010 H
b1 J
b0 N
b0 E
b0 -
b0 M
b1010 D
b1011 C
1(
0$
#421000000000000
1$
#422000000000000
0$
#423000000000000
b110 3
b110 7
b110 ?
b1001 ;
0>
b1000 0
b1000 <
b1100101 #
b1100101 2
b1100101 4
b1100101 9
1"
b1110 =
b1110 A
b1001 B
b1001 1
b1001 @
b1000 G
b0 F
1%
1$
#424000000000000
0$
#425000000000000
1$
#426000000000000
b10000000 )
b10000000 ,
b10000000 5
0(
0$
#427000000000000
0&
0%
1$
#428000000000000
0$
#429000000000000
1$
#430000000000000
0$
#431000000000000
b0 0
b0 <
bz #
bz 2
bz 4
bz 9
08
b0 G
0"
1%
1$
#432000000000000
b1011 /
b1011 H
b1 .
b1 6
b1 L
b11 I
b1011 D
b1001 C
b10 J
b1 N
b1 E
b1 -
b1 M
1(
0$
#433000000000000
1$
#434000000000000
0$
#435000000000000
b1000 ;
b1111 =
1&
0%
1$
#436000000000000
0$
#437000000000000
1$
#438000000000000
b100000 )
b100000 ,
b100000 5
0(
0$
#439000000000000
1>
b111 3
b111 7
b111 ?
b0 ;
18
b1100011 #
b1100011 2
b1100011 4
b1100011 9
b0 =
b1111 A
b1000 B
b1000 1
b1000 @
b1 F
1%
1$
#440000000000000
0$
#441000000000000
1$
#442000000000000
0$
#443000000000000
0%
1$
#444000000000000
b10 .
b10 6
b10 L
b10 I
b1001 /
b1001 H
b11 J
b10 N
b11 E
b11 -
b11 M
b1001 D
b1000 C
1(
0$
#445000000000000
1$
#446000000000000
0$
#447000000000000
b1 0
b1 <
b0 3
b0 7
b0 ?
0>
b0 ;
b1010 #
b1010 2
b1010 4
b1010 9
b1 G
b11 F
b0 =
b0 A
b0 B
b0 1
b0 @
1"
1%
1$
#448000000000000
0$
#449000000000000
1$
#450000000000000
b10101010 )
b10101010 ,
b10101010 5
0(
0$
#451000000000000
0&
0%
1$
#452000000000000
0$
#453000000000000
1$
#454000000000000
0$
#455000000000000
b11 0
b11 <
bz #
bz 2
bz 4
bz 9
08
0"
b11 G
1%
1$
#456000000000000
b1000 /
b1000 H
b11 .
b11 6
b11 L
0K
b110 I
b1000 D
b0 C
b100 J
b11 N
b10 E
b10 -
b10 M
1(
0$
#457000000000000
1$
#458000000000000
0$
#459000000000000
b1 ;
b1 =
1&
0%
1$
#460000000000000
0$
#461000000000000
1$
#462000000000000
b10011101 )
b10011101 ,
b10011101 5
0(
0$
#463000000000000
1>
b1 3
b1 7
b1 ?
b11 ;
18
b10000000 #
b10000000 2
b10000000 4
b10000000 9
b10 F
b10 =
b1 A
b1 B
b1 1
b1 @
1%
1$
#464000000000000
0$
#465000000000000
1$
#466000000000000
0$
#467000000000000
0%
1$
#468000000000000
b100 .
b100 6
b100 L
b111 I
b0 /
b0 H
b101 J
b100 N
b110 E
b110 -
b110 M
b0 D
b1 C
1(
0$
#469000000000000
1$
#470000000000000
0$
#471000000000000
b10 3
b10 7
b10 ?
b11 ;
0>
b10 0
b10 <
b100000 #
b100000 2
b100000 4
b100000 9
1"
b10 =
b10 A
b11 B
b11 1
b11 @
b10 G
b110 F
1%
1$
#472000000000000
0$
#473000000000000
1$
#474000000000000
b10010110 )
b10010110 ,
b10010110 5
0(
0$
#475000000000000
0&
0%
1$
#476000000000000
0$
#477000000000000
1$
#478000000000000
0$
