uart1/sim/sim.vcd
$date
	Tue Jan 26 17:50:20 2021
$end
$version
	Icarus Verilog
$end
$timescale
	1ps
$end
$scope module uart_tb $end
$var wire 1 ! RxSerial $end
$var wire 1 " TxSerial $end
$var wire 1 # TxDone $end
$var wire 1 $ RxDone $end
$var wire 8 % RxByte [7:0] $end
$var reg 1 & ResetN $end
$var reg 1 ' SysClock $end
$var reg 8 ( TxByte [7:0] $end
$var reg 1 ) TxValid $end
$scope module uart_rx_inst $end
$var wire 1 & i_ResetN $end
$var wire 1 ! i_RxSerial $end
$var wire 1 * i_RxValid $end
$var wire 1 ' i_SysClock $end
$var wire 8 + o_RxByte [7:0] $end
$var wire 1 $ o_RxDone $end
$var reg 8 , RxByte [7:0] $end
$var reg 1 - StopBit $end
$var reg 4 . bit_cnt [3:0] $end
$var reg 10 / cycle_cnt [9:0] $end
$var reg 8 0 dbg [7:0] $end
$var reg 1 1 q1_RxSerial $end
$var reg 1 2 q2_RxSerial $end
$var reg 2 3 state [1:0] $end
$upscope $end
$scope module uart_tx_inst $end
$var wire 1 & i_ResetN $end
$var wire 1 ' i_SysClock $end
$var wire 8 4 i_TxByte [7:0] $end
$var wire 1 ) i_TxValid $end
$var wire 1 " o_TxSerial $end
$var wire 1 # o_TxDone $end
$var reg 8 5 Dout [7:0] $end
$var reg 1 " TxSerial $end
$var reg 4 6 bit_cnt [3:0] $end
$var reg 9 7 cycle_cnt [0:8] $end
$var reg 2 8 state [1:0] $end
$upscope $end
$upscope $end
$enddefinitions $end
#0
$dumpvars
bx 8
bx 7
bx 6
bx 5
bx 4
bx 3
x2
x1
bx 0
bx /
bx .
x-
bx ,
bx +
z*
x)
bx (
x'
x&
bx %
x$
x#
x"
x!
$end
#200000
1!
1"
1$
b0 6
b0 7
1#
b0 8
12
11
b0 0
0-
b0 %
b0 +
b0 ,
b0 /
b0 .
b0 3
b0 (
b0 4
0)
0&
1'
#210000
0'
#220000
1'
#230000
1&
0'
#240000
b1 0
1'
#250000
0'
#260000
b0 0
1'
#270000
0'
#280000
b1 0
1'
#290000
0'
#300000
b0 0
1'
#310000
0'
#320000
b1 0
1'
#330000
0'
#340000
b0 0
1'
#350000
0'
#360000
b1 0
1'
#370000
0'
#380000
b0 0
1'
#390000
0'
#400000
b1 0
1'
#410000
0'
#420000
b0 0
1'
#430000
1)
b1010101 (
b1010101 4
0'
#440000
0!
0"
b1 0
0#
b1 8
1'
#450000
0'
#460000
b0 0
01
b1010101 5
b1 7
0)
1'
#470000
0'
#480000
02
b1 0
b10 7
1'
#490000
0'
#500000
0$
b0 0
b1 3
b11 7
1'
#510000
0'
#520000
b10 0
b1 /
b100 7
1'
#530000
0'
#540000
b0 0
b10 /
b101 7
1'
#550000
0'
#560000
b10 0
b11 /
b110 7
1'
#570000
0'
#580000
b0 0
b100 /
b111 7
1'
#590000
0'
#600000
b10 0
b101 /
b1000 7
1'
#610000
0'
#620000
b0 0
b110 /
b1001 7
1'
#630000
0'
#640000
b10 0
b111 /
b1010 7
1'
#650000
0'
#660000
b0 0
b1000 /
b1011 7
1'
#670000
0'
#680000
b10 0
b1001 /
b1100 7
1'
#690000
0'
#700000
b0 0
b1010 /
b1101 7
1'
#710000
0'
#720000
b10 0
b1011 /
b1110 7
1'
#730000
0'
#740000
b0 0
b1100 /
b1111 7
1'
#750000
0'
#760000
b10 0
b1101 /
b10000 7
1'
#770000
0'
#780000
b0 0
b1110 /
b10001 7
1'
#790000
0'
#800000
b10 0
b1111 /
b10010 7
1'
#810000
0'
#820000
b0 0
b10000 /
b10011 7
1'
#830000
0'
#840000
b10 0
b10001 /
b10100 7
1'
#850000
0'
#860000
b0 0
b10010 /
b10101 7
1'
#870000
0'
#880000
b10 0
b10011 /
b10110 7
1'
#890000
0'
#900000
b0 0
b10100 /
b10111 7
1'
#910000
0'
#920000
b10 0
b10101 /
b11000 7
1'
#930000
0'
#940000
b0 0
b10110 /
b11001 7
1'
#950000
0'
#960000
b10 0
b10111 /
b11010 7
1'
#970000
0'
#980000
b0 0
b11000 /
b11011 7
1'
#990000
0'
#1000000
b10 0
b11001 /
b11100 7
1'
#1010000
0'
#1020000
b0 0
b11010 /
b11101 7
1'
#1030000
0'
#1040000
b10 0
b11011 /
b11110 7
1'
#1050000
0'
#1060000
b0 0
b11100 /
b11111 7
1'
#1070000
0'
#1080000
b10 0
b11101 /
b100000 7
1'
#1090000
0'
#1100000
b0 0
b11110 /
b100001 7
1'
#1110000
0'
#1120000
b10 0
b11111 /
b100010 7
1'
#1130000
0'
#1140000
b0 0
b100000 /
b100011 7
1'
#1150000
0'
#1160000
b10 0
b100001 /
b100100 7
1'
#1170000
0'
#1180000
b0 0
b100010 /
b100101 7
1'
#1190000
0'
#1200000
b10 0
b100011 /
b100110 7
1'
#1210000
0'
#1220000
b0 0
b100100 /
b100111 7
1'
#1230000
0'
#1240000
b10 0
b100101 /
b101000 7
1'
#1250000
0'
#1260000
b0 0
b100110 /
b101001 7
1'
#1270000
0'
#1280000
b10 0
b100111 /
b101010 7
1'
#1290000
0'
#1300000
b0 0
b101000 /
b101011 7
1'
#1310000
0'
#1320000
b10 0
b101001 /
b101100 7
1'
#1330000
0'
#1340000
b0 0
b101010 /
b101101 7
1'
#1350000
0'
#1360000
b10 0
b101011 /
b101110 7
1'
#1370000
0'
#1380000
b0 0
b101100 /
b101111 7
1'
#1390000
0'
#1400000
b10 0
b101101 /
b110000 7
1'
#1410000
0'
#1420000
b0 0
b101110 /
b110001 7
1'
#1430000
0'
#1440000
b10 0
b101111 /
b110010 7
1'
#1450000
0'
#1460000
b0 0
b110000 /
b110011 7
1'
#1470000
0'
#1480000
b10 0
b110001 /
b110100 7
1'
#1490000
0'
#1500000
b0 0
b110010 /
b110101 7
1'
#1510000
0'
#1520000
b10 0
b110011 /
b110110 7
1'
#1530000
0'
#1540000
b0 0
b110100 /
b110111 7
1'
#1550000
0'
#1560000
b10 0
b110101 /
b111000 7
1'
#1570000
0'
#1580000
b0 0
b110110 /
b111001 7
1'
#1590000
0'
#1600000
b10 0
b110111 /
b111010 7
1'
#1610000
0'
#1620000
b0 0
b111000 /
b111011 7
1'
#1630000
0'
#1640000
b10 0
b111001 /
b111100 7
1'
#1650000
0'
#1660000
b0 0
b111010 /
b111101 7
1'
#1670000
0'
#1680000
b10 0
b111011 /
b111110 7
1'
#1690000
0'
#1700000
b0 0
b111100 /
b111111 7
1'
#1710000
0'
#1720000
b10 0
b111101 /
b1000000 7
1'
#1730000
0'
#1740000
b0 0
b111110 /
b1000001 7
1'
#1750000
0'
#1760000
b10 0
b111111 /
b1000010 7
1'
#1770000
0'
#1780000
b0 0
b1000000 /
b1000011 7
1'
#1790000
0'
#1800000
b10 0
b1000001 /
b1000100 7
1'
#1810000
0'
#1820000
b0 0
b1000010 /
b1000101 7
1'
#1830000
0'
#1840000
b10 0
b1000011 /
b1000110 7
1'
#1850000
0'
#1860000
b0 0
b1000100 /
b1000111 7
1'
#1870000
0'
#1880000
b10 0
b1000101 /
b1001000 7
1'
#1890000
0'
#1900000
b0 0
b1000110 /
b1001001 7
1'
#1910000
0'
#1920000
b10 0
b1000111 /
b1001010 7
1'
#1930000
0'
#1940000
b0 0
b1001000 /
b1001011 7
1'
#1950000
0'
#1960000
b10 0
b1001001 /
b1001100 7
1'
#1970000
0'
#1980000
b0 0
b1001010 /
b1001101 7
1'
#1990000
0'
#2000000
b10 0
b1001011 /
b1001110 7
1'
#2010000
0'
#2020000
b0 0
b1001100 /
b1001111 7
1'
#2030000
0'
#2040000
b10 0
b1001101 /
b1010000 7
1'
#2050000
0'
#2060000
b0 0
b1001110 /
b1010001 7
1'
#2070000
0'
#2080000
b10 0
b1001111 /
b1010010 7
1'
#2090000
0'
#2100000
b0 0
b1010000 /
b1010011 7
1'
#2110000
0'
#2120000
b10 0
b1010001 /
b1010100 7
1'
#2130000
0'
#2140000
b0 0
b1010010 /
b1010101 7
1'
#2150000
0'
#2160000
b10 0
b1010011 /
b1010110 7
1'
#2170000
0'
#2180000
b0 0
b1010100 /
b1010111 7
1'
#2190000
0'
#2200000
b10 0
b1010101 /
b1011000 7
1'
#2210000
0'
#2220000
b0 0
b1010110 /
b1011001 7
1'
#2230000
0'
#2240000
b10 0
b1010111 /
b1011010 7
1'
#2250000
0'
#2260000
b0 0
b1011000 /
b1011011 7
1'
#2270000
0'
#2280000
b10 0
b1011001 /
b1011100 7
1'
#2290000
0'
#2300000
b0 0
b1011010 /
b1011101 7
1'
#2310000
0'
#2320000
b10 0
b1011011 /
b1011110 7
1'
#2330000
0'
#2340000
b0 0
b1011100 /
b1011111 7
1'
#2350000
0'
#2360000
b10 0
b1011101 /
b1100000 7
1'
#2370000
0'
#2380000
b0 0
b1011110 /
b1100001 7
1'
#2390000
0'
#2400000
b10 0
b1011111 /
b1100010 7
1'
#2410000
0'
#2420000
b0 0
b1100000 /
b1100011 7
1'
#2430000
0'
#2440000
b10 0
b1100001 /
b1100100 7
1'
#2450000
0'
#2460000
b0 0
b1100010 /
b1100101 7
1'
#2470000
0'
#2480000
b10 0
b1100011 /
b1100110 7
1'
#2490000
0'
#2500000
b0 0
b1100100 /
b1100111 7
1'
#2510000
0'
#2520000
b10 0
b1100101 /
b1101000 7
1'
#2530000
0'
#2540000
b0 0
b1100110 /
b1101001 7
1'
#2550000
0'
#2560000
b10 0
b1100111 /
b1101010 7
1'
#2570000
0'
#2580000
b0 0
b1101000 /
b1101011 7
1'
#2590000
0'
#2600000
b10 0
b1101001 /
b1101100 7
1'
#2610000
0'
#2620000
b0 0
b1101010 /
b1101101 7
1'
#2630000
0'
#2640000
b10 0
b1101011 /
b1101110 7
1'
#2650000
0'
#2660000
b0 0
b1101100 /
b1101111 7
1'
#2670000
0'
#2680000
b10 0
b1101101 /
b1110000 7
1'
#2690000
0'
#2700000
b0 0
b1101110 /
b1110001 7
1'
#2710000
0'
#2720000
b10 0
b1101111 /
b1110010 7
1'
#2730000
0'
#2740000
b0 0
b1110000 /
b1110011 7
1'
#2750000
0'
#2760000
b10 0
b1110001 /
b1110100 7
1'
#2770000
0'
#2780000
b0 0
b1110010 /
b1110101 7
1'
#2790000
0'
#2800000
b10 0
b1110011 /
b1110110 7
1'
#2810000
0'
#2820000
b0 0
b1110100 /
b1110111 7
1'
#2830000
0'
#2840000
b10 0
b1110101 /
b1111000 7
1'
#2850000
0'
#2860000
b0 0
b1110110 /
b1111001 7
1'
#2870000
0'
#2880000
b10 0
b1110111 /
b1111010 7
1'
#2890000
0'
#2900000
b0 0
b1111000 /
b1111011 7
1'
#2910000
0'
#2920000
b10 0
b1111001 /
b1111100 7
1'
#2930000
0'
#2940000
b0 0
b1111010 /
b1111101 7
1'
#2950000
0'
#2960000
b10 0
b1111011 /
b1111110 7
1'
#2970000
0'
#2980000
b0 0
b1111100 /
b1111111 7
1'
#2990000
0'
#3000000
b10 0
b1111101 /
b10000000 7
1'
#3010000
0'
#3020000
b0 0
b1111110 /
b10000001 7
1'
#3030000
0'
#3040000
b10 0
b1111111 /
b10000010 7
1'
#3050000
0'
#3060000
b0 0
b10000000 /
b10000011 7
1'
#3070000
0'
#3080000
b10 0
b10000001 /
b10000100 7
1'
#3090000
0'
#3100000
b0 0
b10000010 /
b10000101 7
1'
#3110000
0'
#3120000
b10 0
b10000011 /
b10000110 7
1'
#3130000
0'
#3140000
b0 0
b10000100 /
b10000111 7
1'
#3150000
0'
#3160000
b10 0
b10000101 /
b10001000 7
1'
#3170000
0'
#3180000
b0 0
b10000110 /
b10001001 7
1'
#3190000
0'
#3200000
b10 0
b10000111 /
b10001010 7
1'
#3210000
0'
#3220000
b0 0
b10001000 /
b10001011 7
1'
#3230000
0'
#3240000
b10 0
b10001001 /
b10001100 7
1'
#3250000
0'
#3260000
b0 0
b10001010 /
b10001101 7
1'
#3270000
0'
#3280000
b10 0
b10001011 /
b10001110 7
1'
#3290000
0'
#3300000
b0 0
b10001100 /
b10001111 7
1'
#3310000
0'
#3320000
b10 0
b10001101 /
b10010000 7
1'
#3330000
0'
#3340000
b0 0
b10001110 /
b10010001 7
1'
#3350000
0'
#3360000
b10 0
b10001111 /
b10010010 7
1'
#3370000
0'
#3380000
b0 0
b10010000 /
b10010011 7
1'
#3390000
0'
#3400000
b10 0
b10010001 /
b10010100 7
1'
#3410000
0'
#3420000
b0 0
b10010010 /
b10010101 7
1'
#3430000
0'
#3440000
b10 0
b10010011 /
b10010110 7
1'
#3450000
0'
#3460000
b0 0
b10010100 /
b10010111 7
1'
#3470000
0'
#3480000
b10 0
b10010101 /
b10011000 7
1'
#3490000
0'
#3500000
b0 0
b10010110 /
b10011001 7
1'
#3510000
0'
#3520000
b10 0
b10010111 /
b10011010 7
1'
#3530000
0'
#3540000
b0 0
b10011000 /
b10011011 7
1'
#3550000
0'
#3560000
b10 0
b10011001 /
b10011100 7
1'
#3570000
0'
#3580000
b0 0
b10011010 /
b10011101 7
1'
#3590000
0'
#3600000
b10 0
b10011011 /
b10011110 7
1'
#3610000
0'
#3620000
b0 0
b10011100 /
b10011111 7
1'
#3630000
0'
#3640000
b10 0
b10011101 /
b10100000 7
1'
#3650000
0'
#3660000
b0 0
b10011110 /
b10100001 7
1'
#3670000
0'
#3680000
b10 0
b10011111 /
b10100010 7
1'
#3690000
0'
#3700000
b0 0
b10100000 /
b10100011 7
1'
#3710000
0'
#3720000
b10 0
b10100001 /
b10100100 7
1'
#3730000
0'
#3740000
b0 0
b10100010 /
b10100101 7
1'
#3750000
0'
#3760000
b10 0
b10100011 /
b10100110 7
1'
#3770000
0'
#3780000
b0 0
b10100100 /
b10100111 7
1'
#3790000
0'
#3800000
b10 0
b10100101 /
b10101000 7
1'
#3810000
0'
#3820000
b0 0
b10100110 /
b10101001 7
1'
#3830000
0'
#3840000
b10 0
b10100111 /
b10101010 7
1'
#3850000
0'
#3860000
b0 0
b10101000 /
b10101011 7
1'
#3870000
0'
#3880000
b10 0
b10101001 /
b10101100 7
1'
#3890000
0'
#3900000
b0 0
b10101010 /
b10101101 7
1'
#3910000
0'
#3920000
b10 0
b10101011 /
b10101110 7
1'
#3930000
0'
#3940000
b0 0
b10101100 /
b10101111 7
1'
#3950000
0'
#3960000
b10 0
b10101101 /
b10110000 7
1'
#3970000
0'
#3980000
b0 0
b10101110 /
b10110001 7
1'
#3990000
0'
#4000000
b10 0
b10101111 /
b10110010 7
1'
#4010000
0'
#4020000
b0 0
b10110000 /
b10110011 7
1'
#4030000
0'
#4040000
b10 0
b10110001 /
b10110100 7
1'
#4050000
0'
#4060000
b0 0
b10110010 /
b10110101 7
1'
#4070000
0'
#4080000
b10 0
b10110011 /
b10110110 7
1'
#4090000
0'
#4100000
b0 0
b10110100 /
b10110111 7
1'
#4110000
0'
#4120000
b10 0
b10110101 /
b10111000 7
1'
#4130000
0'
#4140000
b0 0
b10110110 /
b10111001 7
1'
#4150000
0'
#4160000
b10 0
b10110111 /
b10111010 7
1'
#4170000
0'
#4180000
b0 0
b10111000 /
b10111011 7
1'
#4190000
0'
#4200000
b10 0
b10111001 /
b10111100 7
1'
#4210000
0'
#4220000
b0 0
b10111010 /
b10111101 7
1'
#4230000
0'
#4240000
b10 0
b10111011 /
b10111110 7
1'
#4250000
0'
#4260000
b0 0
b10111100 /
b10111111 7
1'
#4270000
0'
#4280000
b10 0
b10111101 /
b11000000 7
1'
#4290000
0'
#4300000
b0 0
b10111110 /
b11000001 7
1'
#4310000
0'
#4320000
b10 0
b10111111 /
b11000010 7
1'
#4330000
0'
#4340000
b0 0
b11000000 /
b11000011 7
1'
#4350000
0'
#4360000
b10 0
b11000001 /
b11000100 7
1'
#4370000
0'
#4380000
b0 0
b11000010 /
b11000101 7
1'
#4390000
0'
#4400000
b10 0
b11000011 /
b11000110 7
1'
#4410000
0'
#4420000
b0 0
b11000100 /
b11000111 7
1'
#4430000
0'
#4440000
b10 0
b11000101 /
b11001000 7
1'
#4450000
0'
#4460000
b0 0
b11000110 /
b11001001 7
1'
#4470000
0'
#4480000
b10 0
b11000111 /
b11001010 7
1'
#4490000
0'
#4500000
b0 0
b11001000 /
b11001011 7
1'
#4510000
0'
#4520000
b10 0
b11001001 /
b11001100 7
1'
#4530000
0'
#4540000
b0 0
b11001010 /
b11001101 7
1'
#4550000
0'
#4560000
b10 0
b11001011 /
b11001110 7
1'
#4570000
0'
#4580000
b0 0
b11001100 /
b11001111 7
1'
#4590000
0'
#4600000
b10 0
b11001101 /
b11010000 7
1'
#4610000
0'
#4620000
b0 0
b11001110 /
b11010001 7
1'
#4630000
0'
#4640000
b10 0
b11001111 /
b11010010 7
1'
#4650000
0'
#4660000
b0 0
b11010000 /
b11010011 7
1'
#4670000
0'
#4680000
b10 0
b11010001 /
b11010100 7
1'
#4690000
0'
#4700000
b0 0
b11010010 /
b11010101 7
1'
#4710000
0'
#4720000
b10 0
b11010011 /
b11010110 7
1'
#4730000
0'
#4740000
b0 0
b11010100 /
b11010111 7
1'
#4750000
0'
#4760000
b10 0
b11010101 /
b11011000 7
1'
#4770000
0'
#4780000
b0 0
b11010110 /
b11011001 7
1'
#4790000
0'
#4800000
b10 0
b11010111 /
b11011010 7
1'
#4810000
0'
#4820000
b0 0
b11011000 /
b11011011 7
1'
#4830000
0'
#4840000
b100 0
b0 /
b10 3
b11011100 7
1'
#4850000
0'
#4860000
b1100 0
b1 /
b11011101 7
1'
#4870000
0'
#4880000
b100 0
b10 /
b11011110 7
1'
#4890000
0'
#4900000
b1100 0
b11 /
b11011111 7
1'
#4910000
0'
#4920000
b100 0
b100 /
b11100000 7
1'
#4930000
0'
#4940000
b1100 0
b101 /
b11100001 7
1'
#4950000
0'
#4960000
b100 0
b110 /
b11100010 7
1'
#4970000
0'
#4980000
b1100 0
b111 /
b11100011 7
1'
#4990000
0'
#5000000
b100 0
b1000 /
b11100100 7
1'
#5010000
0'
#5020000
b1100 0
b1001 /
b11100101 7
1'
#5030000
0'
#5040000
b100 0
b1010 /
b11100110 7
1'
#5050000
0'
#5060000
b1100 0
b1011 /
b11100111 7
1'
#5070000
0'
#5080000
b100 0
b1100 /
b11101000 7
1'
#5090000
0'
#5100000
b1100 0
b1101 /
b11101001 7
1'
#5110000
0'
#5120000
b100 0
b1110 /
b11101010 7
1'
#5130000
0'
#5140000
b1100 0
b1111 /
b11101011 7
1'
#5150000
0'
#5160000
b100 0
b10000 /
b11101100 7
1'
#5170000
0'
#5180000
b1100 0
b10001 /
b11101101 7
1'
#5190000
0'
#5200000
b100 0
b10010 /
b11101110 7
1'
#5210000
0'
#5220000
b1100 0
b10011 /
b11101111 7
1'
#5230000
0'
#5240000
b100 0
b10100 /
b11110000 7
1'
#5250000
0'
#5260000
b1100 0
b10101 /
b11110001 7
1'
#5270000
0'
#5280000
b100 0
b10110 /
b11110010 7
1'
#5290000
0'
#5300000
b1100 0
b10111 /
b11110011 7
1'
#5310000
0'
#5320000
b100 0
b11000 /
b11110100 7
1'
#5330000
0'
#5340000
b1100 0
b11001 /
b11110101 7
1'
#5350000
0'
#5360000
b100 0
b11010 /
b11110110 7
1'
#5370000
0'
#5380000
b1100 0
b11011 /
b11110111 7
1'
#5390000
0'
#5400000
b100 0
b11100 /
b11111000 7
1'
#5410000
0'
#5420000
b1100 0
b11101 /
b11111001 7
1'
#5430000
0'
#5440000
b100 0
b11110 /
b11111010 7
1'
#5450000
0'
#5460000
b1100 0
b11111 /
b11111011 7
1'
#5470000
0'
#5480000
b100 0
b100000 /
b11111100 7
1'
#5490000
0'
#5500000
b1100 0
b100001 /
b11111101 7
1'
#5510000
0'
#5520000
b100 0
b100010 /
b11111110 7
1'
#5530000
0'
#5540000
b1100 0
b100011 /
b11111111 7
1'
#5550000
0'
#5560000
b100 0
b100100 /
b100000000 7
1'
#5570000
0'
#5580000
b1100 0
b100101 /
b100000001 7
1'
#5590000
0'
#5600000
b100 0
b100110 /
b100000010 7
1'
#5610000
0'
#5620000
b1100 0
b100111 /
b100000011 7
1'
#5630000
0'
#5640000
b100 0
b101000 /
b100000100 7
1'
#5650000
0'
#5660000
b1100 0
b101001 /
b100000101 7
1'
#5670000
0'
#5680000
b100 0
b101010 /
b100000110 7
1'
#5690000
0'
#5700000
b1100 0
b101011 /
b100000111 7
1'
#5710000
0'
#5720000
b100 0
b101100 /
b100001000 7
1'
#5730000
0'
#5740000
b1100 0
b101101 /
b100001001 7
1'
#5750000
0'
#5760000
b100 0
b101110 /
b100001010 7
1'
#5770000
0'
#5780000
b1100 0
b101111 /
b100001011 7
1'
#5790000
0'
#5800000
b100 0
b110000 /
b100001100 7
1'
#5810000
0'
#5820000
b1100 0
b110001 /
b100001101 7
1'
#5830000
0'
#5840000
b100 0
b110010 /
b100001110 7
1'
#5850000
0'
#5860000
b1100 0
b110011 /
b100001111 7
1'
#5870000
0'
#5880000
b100 0
b110100 /
b100010000 7
1'
#5890000
0'
#5900000
b1100 0
b110101 /
b100010001 7
1'
#5910000
0'
#5920000
b100 0
b110110 /
b100010010 7
1'
#5930000
0'
#5940000
b1100 0
b110111 /
b100010011 7
1'
#5950000
0'
#5960000
b100 0
b111000 /
b100010100 7
1'
#5970000
0'
#5980000
b1100 0
b111001 /
b100010101 7
1'
#5990000
0'
#6000000
b100 0
b111010 /
b100010110 7
1'
#6010000
0'
#6020000
b1100 0
b111011 /
b100010111 7
1'
#6030000
0'
#6040000
b100 0
b111100 /
b100011000 7
1'
#6050000
0'
#6060000
b1100 0
b111101 /
b100011001 7
1'
#6070000
0'
#6080000
b100 0
b111110 /
b100011010 7
1'
#6090000
0'
#6100000
b1100 0
b111111 /
b100011011 7
1'
#6110000
0'
#6120000
b100 0
b1000000 /
b100011100 7
1'
#6130000
0'
#6140000
b1100 0
b1000001 /
b100011101 7
1'
#6150000
0'
#6160000
b100 0
b1000010 /
b100011110 7
1'
#6170000
0'
#6180000
b1100 0
b1000011 /
b100011111 7
1'
#6190000
0'
#6200000
b100 0
b1000100 /
b100100000 7
1'
#6210000
0'
#6220000
b1100 0
b1000101 /
b100100001 7
1'
#6230000
0'
#6240000
b100 0
b1000110 /
b100100010 7
1'
#6250000
0'
#6260000
b1100 0
b1000111 /
b100100011 7
1'
#6270000
0'
#6280000
b100 0
b1001000 /
b100100100 7
1'
#6290000
0'
#6300000
b1100 0
b1001001 /
b100100101 7
1'
#6310000
0'
#6320000
b100 0
b1001010 /
b100100110 7
1'
#6330000
0'
#6340000
b1100 0
b1001011 /
b100100111 7
1'
#6350000
0'
#6360000
b100 0
b1001100 /
b100101000 7
1'
#6370000
0'
#6380000
b1100 0
b1001101 /
b100101001 7
1'
#6390000
0'
#6400000
b100 0
b1001110 /
b100101010 7
1'
#6410000
0'
#6420000
b1100 0
b1001111 /
b100101011 7
1'
#6430000
0'
#6440000
b100 0
b1010000 /
b100101100 7
1'
#6450000
0'
#6460000
b1100 0
b1010001 /
b100101101 7
1'
#6470000
0'
#6480000
b100 0
b1010010 /
b100101110 7
1'
#6490000
0'
#6500000
b1100 0
b1010011 /
b100101111 7
1'
#6510000
0'
#6520000
b100 0
b1010100 /
b100110000 7
1'
#6530000
0'
#6540000
b1100 0
b1010101 /
b100110001 7
1'
#6550000
0'
#6560000
b100 0
b1010110 /
b100110010 7
1'
#6570000
0'
#6580000
b1100 0
b1010111 /
b100110011 7
1'
#6590000
0'
#6600000
b100 0
b1011000 /
b100110100 7
1'
#6610000
0'
#6620000
b1100 0
b1011001 /
b100110101 7
1'
#6630000
0'
#6640000
b100 0
b1011010 /
b100110110 7
1'
#6650000
0'
#6660000
b1100 0
b1011011 /
b100110111 7
1'
#6670000
0'
#6680000
b100 0
b1011100 /
b100111000 7
1'
#6690000
0'
#6700000
b1100 0
b1011101 /
b100111001 7
1'
#6710000
0'
#6720000
b100 0
b1011110 /
b100111010 7
1'
#6730000
0'
#6740000
b1100 0
b1011111 /
b100111011 7
1'
#6750000
0'
#6760000
b100 0
b1100000 /
b100111100 7
1'
#6770000
0'
#6780000
b1100 0
b1100001 /
b100111101 7
1'
#6790000
0'
#6800000
b100 0
b1100010 /
b100111110 7
1'
#6810000
0'
#6820000
b1100 0
b1100011 /
b100111111 7
1'
#6830000
0'
#6840000
b100 0
b1100100 /
b101000000 7
1'
#6850000
0'
#6860000
b1100 0
b1100101 /
b101000001 7
1'
#6870000
0'
#6880000
b100 0
b1100110 /
b101000010 7
1'
#6890000
0'
#6900000
b1100 0
b1100111 /
b101000011 7
1'
#6910000
0'
#6920000
b100 0
b1101000 /
b101000100 7
1'
#6930000
0'
#6940000
b1100 0
b1101001 /
b101000101 7
1'
#6950000
0'
#6960000
b100 0
b1101010 /
b101000110 7
1'
#6970000
0'
#6980000
b1100 0
b1101011 /
b101000111 7
1'
#6990000
0'
#7000000
b100 0
b1101100 /
b101001000 7
1'
#7010000
0'
#7020000
b1100 0
b1101101 /
b101001001 7
1'
#7030000
0'
#7040000
b100 0
b1101110 /
b101001010 7
1'
#7050000
0'
#7060000
b1100 0
b1101111 /
b101001011 7
1'
#7070000
0'
#7080000
b100 0
b1110000 /
b101001100 7
1'
#7090000
0'
#7100000
b1100 0
b1110001 /
b101001101 7
1'
#7110000
0'
#7120000
b100 0
b1110010 /
b101001110 7
1'
#7130000
0'
#7140000
b1100 0
b1110011 /
b101001111 7
1'
#7150000
0'
#7160000
b100 0
b1110100 /
b101010000 7
1'
#7170000
0'
#7180000
b1100 0
b1110101 /
b101010001 7
1'
#7190000
0'
#7200000
b100 0
b1110110 /
b101010010 7
1'
#7210000
0'
#7220000
b1100 0
b1110111 /
b101010011 7
1'
#7230000
0'
#7240000
b100 0
b1111000 /
b101010100 7
1'
#7250000
0'
#7260000
b1100 0
b1111001 /
b101010101 7
1'
#7270000
0'
#7280000
b100 0
b1111010 /
b101010110 7
1'
#7290000
0'
#7300000
b1100 0
b1111011 /
b101010111 7
1'
#7310000
0'
#7320000
b100 0
b1111100 /
b101011000 7
1'
#7330000
0'
#7340000
b1100 0
b1111101 /
b101011001 7
1'
#7350000
0'
#7360000
b100 0
b1111110 /
b101011010 7
1'
#7370000
0'
#7380000
b1100 0
b1111111 /
b101011011 7
1'
#7390000
0'
#7400000
b100 0
b10000000 /
b101011100 7
1'
#7410000
0'
#7420000
b1100 0
b10000001 /
b101011101 7
1'
#7430000
0'
#7440000
b100 0
b10000010 /
b101011110 7
1'
#7450000
0'
#7460000
b1100 0
b10000011 /
b101011111 7
1'
#7470000
0'
#7480000
b100 0
b10000100 /
b101100000 7
1'
#7490000
0'
#7500000
b1100 0
b10000101 /
b101100001 7
1'
#7510000
0'
#7520000
b100 0
b10000110 /
b101100010 7
1'
#7530000
0'
#7540000
b1100 0
b10000111 /
b101100011 7
1'
#7550000
0'
#7560000
b100 0
b10001000 /
b101100100 7
1'
#7570000
0'
#7580000
b1100 0
b10001001 /
b101100101 7
1'
#7590000
0'
#7600000
b100 0
b10001010 /
b101100110 7
1'
#7610000
0'
#7620000
b1100 0
b10001011 /
b101100111 7
1'
#7630000
0'
#7640000
b100 0
b10001100 /
b101101000 7
1'
#7650000
0'
#7660000
b1100 0
b10001101 /
b101101001 7
1'
#7670000
0'
#7680000
b100 0
b10001110 /
b101101010 7
1'
#7690000
0'
#7700000
b1100 0
b10001111 /
b101101011 7
1'
#7710000
0'
#7720000
b100 0
b10010000 /
b101101100 7
1'
#7730000
0'
#7740000
b1100 0
b10010001 /
b101101101 7
1'
#7750000
0'
#7760000
b100 0
b10010010 /
b101101110 7
1'
#7770000
0'
#7780000
b1100 0
b10010011 /
b101101111 7
1'
#7790000
0'
#7800000
b100 0
b10010100 /
b101110000 7
1'
#7810000
0'
#7820000
b1100 0
b10010101 /
b101110001 7
1'
#7830000
0'
#7840000
b100 0
b10010110 /
b101110010 7
1'
#7850000
0'
#7860000
b1100 0
b10010111 /
b101110011 7
1'
#7870000
0'
#7880000
b100 0
b10011000 /
b101110100 7
1'
#7890000
0'
#7900000
b1100 0
b10011001 /
b101110101 7
1'
#7910000
0'
#7920000
b100 0
b10011010 /
b101110110 7
1'
#7930000
0'
#7940000
b1100 0
b10011011 /
b101110111 7
1'
#7950000
0'
#7960000
b100 0
b10011100 /
b101111000 7
1'
#7970000
0'
#7980000
b1100 0
b10011101 /
b101111001 7
1'
#7990000
0'
#8000000
b100 0
b10011110 /
b101111010 7
1'
#8010000
0'
#8020000
b1100 0
b10011111 /
b101111011 7
1'
#8030000
0'
#8040000
b100 0
b10100000 /
b101111100 7
1'
#8050000
0'
#8060000
b1100 0
b10100001 /
b101111101 7
1'
#8070000
0'
#8080000
b100 0
b10100010 /
b101111110 7
1'
#8090000
0'
#8100000
b1100 0
b10100011 /
b101111111 7
1'
#8110000
0'
#8120000
b100 0
b10100100 /
b110000000 7
1'
#8130000
0'
#8140000
b1100 0
b10100101 /
b110000001 7
1'
#8150000
0'
#8160000
b100 0
b10100110 /
b110000010 7
1'
#8170000
0'
#8180000
b1100 0
b10100111 /
b110000011 7
1'
#8190000
0'
#8200000
b100 0
b10101000 /
b110000100 7
1'
#8210000
0'
#8220000
b1100 0
b10101001 /
b110000101 7
1'
#8230000
0'
#8240000
b100 0
b10101010 /
b110000110 7
1'
#8250000
0'
#8260000
b1100 0
b10101011 /
b110000111 7
1'
#8270000
0'
#8280000
b100 0
b10101100 /
b110001000 7
1'
#8290000
0'
#8300000
b1100 0
b10101101 /
b110001001 7
1'
#8310000
0'
#8320000
b100 0
b10101110 /
b110001010 7
1'
#8330000
0'
#8340000
b1100 0
b10101111 /
b110001011 7
1'
#8350000
0'
#8360000
b100 0
b10110000 /
b110001100 7
1'
#8370000
0'
#8380000
b1100 0
b10110001 /
b110001101 7
1'
#8390000
0'
#8400000
b100 0
b10110010 /
b110001110 7
1'
#8410000
0'
